My Data Analysis Portfolio - Flu Data Analysis
…
Now that we have created the workflow, we can fit the model to the training and test data sets created previously.

training_fit <- flu_wflow %>%
                fit(data = training_data)
test_fit <- flu_wflow %>%
                fit(data = test_data)

The next step is to use the trained workflows, training_fit, to predict with unseen test data.

predict(training_fit, test_data)

Warning in predict.lm(object, newdata, se.fit, scale = 1, type = if (type == :
prediction from a rank-deficient fit may be misleading

# A tibble: 183 × 1
   .pred_class
   <fct>      
 1 No         
 2 Yes        
 3 No         
 4 No         
 5 No         
 6 Yes        
 7 No         
 8 No         
 9 No         
10 Yes        
# … with 173 more rows
# ℹ Use `print(n = ...)` to see more rows
…
Now that we have created the workflow, we can fit the model to the training and test data sets created previously.

training_fit1 <- flu_wflow3 %>%
                fit(data = training_data1)
test_fit1 <- flu_wflow3 %>%
                fit(data = test_data1)

The next step is to use the trained workflows, training_fit, to predict with unseen test data.

predict(training_fit1, test_data1)

Warning in predict.lm(object = object$fit, newdata = new_data, type =
"response"): prediction from a rank-deficient fit may be misleading

# A tibble: 183 × 1
   .pred
   <dbl>
 1 100. 
 2  99.8
 3  98.9
 4  98.7
 5  99.6
 6  99.7
 7  98.9
 8  99.6
 9  99.7
10  99.5
# … with 173 more rows
# ℹ Use `print(n = ...)` to see more rows
…
training_aug3 <- augment(training_fit1, training_data1)

Warning in predict.lm(object = object$fit, newdata = new_data, type =
"response"): prediction from a rank-deficient fit may be misleading

test_aug3 <- augment(test_fit1, test_data1)

Warning in predict.lm(object = object$fit, newdata = new_data, type =
"response"): prediction from a rank-deficient fit may be misleading

test_aug3 %>%
  select(BodyTemp,.pred)

# A tibble: 183 × 2
   BodyTemp .pred
      <dbl> <dbl>
 1    102.   99.3
 2     97.9  99.6
 3     99    98.6
 4     98.1  98.7
 5     99.5  98.8
 6     98.8  98.5
 7    102.   99.2
 8    100.   99.2
 9     98.1  99.6
10     98    99.0
# … with 173 more rows
# ℹ Use `print(n = ...)` to see more rows
…
training_fit2 <- flu_wflow4 %>%
        fit(data = training_data1)

test_fit2 <- flu_wflow4 %>%
        fit(data = test_data1)

training_aug4 <- augment(training_fit2, training_data1)
test_aug4 <- augment(test_fit2, test_data1)

Lets look at the RMSE for training model.

training_aug4 %>%
     select(BodyTemp, RunnyNose,.pred)

# A tibble: 547 × 3
   BodyTemp RunnyNose .pred
      <dbl> <fct>     <dbl>
 1     99.2 Yes        98.9
 2    101.  Yes        98.9
 3    101   Yes        98.9
 4     98.7 Yes        98.9
 5    102.  No         99.2
 6     97.8 Yes        98.9
 7     98.5 Yes        98.9
 8    102.  Yes        98.9
 9     98.4 Yes        98.9
10     99.3 No         99.2
# … with 537 more rows
# ℹ Use `print(n = ...)` to see more rows

training_aug4 %>%
  rmse(BodyTemp,.pred)

# A tibble: 1 × 3
  .metric .estimator .estimate
  <chr>   <chr>          <dbl>
1 rmse    standard        1.24

Calculate RMSE for testing model

test_aug4 %>%
     select(BodyTemp, RunnyNose,.pred)

# A tibble: 183 × 3
   BodyTemp RunnyNose .pred
      <dbl> <fct>     <dbl>
 1    102.  Yes        98.7
 2     97.9 No         99.0
 3     99   Yes        98.7
 4     98.1 Yes        98.7
 5     99.5 No         99.0
 6     98.8 No         99.0
 7    102.  No         99.0
 8    100.  Yes        98.7
 9     98.1 No         99.0
10     98   Yes        98.7
# … with 173 more rows
# ℹ Use `print(n = ...)` to see more rows
…
